{

	"verbose": true,

	"delay": 10,

	"watch": [
		"app.js",
		"appWS.js",
		"app/pages/*/router/**/*.js",
		"app/pages/*/channels/**/*.js",
		"app/routes/**/*.js",
		"app/roles/**/*.js",
		"app/middlewares/**/*.js",
		"app/models/**/*.js",
		"api/**/*.js"
	],

	"ignore": [
		".DS_Store",
		"**/models/*.js",
		"**/lib/*.js",
		"*.test.js",
		"fixtures/*",
		"*.jade",
		"*.less",
		"*.json",
		"public/"
	],

	"events":
	{
		"start": "osascript -e 'display notification \"Server has started\" with title \"GLHF Express\"'",
		"exit": "osascript -e 'display notification \"Server has exited successfully\" with title \"GLHF Express\"'",
		"crash": "osascript -e 'display notification \"Server has CRASHED!\" with title \"GLHF Express\"'"
	}

}